<svg width="24" height="24" viewBox="0 0 24 24" fill="none" xmlns="http://www.w3.org/2000/svg">
  <mask id="mask0_33_1998" style="mask-type:alpha" maskUnits="userSpaceOnUse" x="0" y="0" width="24" height="24">
  <rect width="24" height="24" fill="#D9D9D9"/>
  </mask>
  <g mask="url(#mask0_33_1998)">
  <path d="M12 21C9.48333 21 7.35417 20.1292 5.6125 18.3875C3.87083 16.6458 3 14.5167 3 12C3 9.7 3.75 7.70417 5.25 6.0125C6.75 4.32083 8.66667 3.33333 11 3.05C11.4167 3 11.7417 3.15 11.975 3.5C12.2083 3.85 12.2 4.21667 11.95 4.6C11.6667 5.03333 11.4542 5.49167 11.3125 5.975C11.1708 6.45833 11.1 6.96667 11.1 7.5C11.1 9 11.625 10.275 12.675 11.325C13.725 12.375 15 12.9 16.5 12.9C17.0167 12.9 17.5292 12.825 18.0375 12.675C18.5458 12.525 19 12.3167 19.4 12.05C19.75 11.8167 20.1083 11.8042 20.475 12.0125C20.8417 12.2208 21 12.55 20.95 13C20.7167 15.3 19.7375 17.2083 18.0125 18.725C16.2875 20.2417 14.2833 21 12 21ZM12 19C13.4667 19 14.7833 18.5958 15.95 17.7875C17.1167 16.9792 17.9667 15.925 18.5 14.625C18.1667 14.7083 17.8333 14.775 17.5 14.825C17.1667 14.875 16.8333 14.9 16.5 14.9C14.45 14.9 12.7042 14.1792 11.2625 12.7375C9.82083 11.2958 9.1 9.55 9.1 7.5C9.1 7.16667 9.125 6.83333 9.175 6.5C9.225 6.16667 9.29167 5.83333 9.375 5.5C8.075 6.03333 7.02083 6.88333 6.2125 8.05C5.40417 9.21667 5 10.5333 5 12C5 13.9333 5.68333 15.5833 7.05 16.95C8.41667 18.3167 10.0667 19 12 19Z" fill="#1C1B1F"/>
  </g>
  </svg>
  